robot
LAYER fatal
SEQUENCE base
FORWARD
FRAME 20
               
      ▐◘▌      
               
               
               
▟█▙         ▟█▙
▜ ▛         ▜ ▛
               
    ▂█   █▂    
FRAME 20
               
      ▐◘▌      
               
               
               
▟█▙         ▟█▙
▜ ▛         ▜ ▛
    ▂█         
         █▂    
FRAME 20
               
      ▐◘▌      
               
               
               
▟█▙         ▟█▙
▜ ▛         ▜ ▛
               
    ▂█   █▂    
FRAME 20
               
      ▐◘▌      
               
               
               
▟█▙         ▟█▙
▜ ▛         ▜ ▛
         █▂    
    ▂█         
FRAME 20
               
      ▐◘▌      
               
               
               
            ▟█▙
▟█▙         ▜ ▛
▜ ▛            
    ▂█   █▂    
FRAME 20
               
      ▐◘▌      
               
               
               
               
            ▟█▙
▟█▙ ▂█      ▜ ▛
▜ ▛      █▂    
FRAME 20
               
      ▐◘▌      
               
               
               
               
▟█▙            
▜ ▛         ▟█▙
    ▂█   █▂ ▜ ▛
FRAME 20
               
      ▐◘▌      
               
               
               
▟█▙            
▜ ▛         ▟█▙
         █▂ ▜ ▛
    ▂█         
SEQUENCE end
FORWARD
FRAME 0
 
LAYER interactive
SEQUENCE base
FORWARD
FRAME 0
       ▂       
               
               
               
               
               
               
               
SEQUENCE end
FORWARD
FRAME 0
 
LAYER collision
SEQUENCE base
FORWARD
FRAME 20
               
               
  ▄███▟█▙███▄  
 ▟▛ ▜█████▛ ▜▙ 
 █   ▐███▌   █ 
     █▛▀▜█     
    ▟█   █▙    
    ▜▌   ▐▛    
               
FRAME 20
               
               
  ▄███▟█▙███▄  
 ▟▛ ▜█████▛ ▜▙ 
 █   ████▌   █ 
    ▟██▀▜█     
    ▜▛   █▙    
         ▐▛    
               
FRAME 20
               
               
  ▄███▟█▙███▄  
 ▟▛ ▜█████▛ ▜▙ 
 █   ▐███▌   █ 
     █▛▀▜█     
    ▟█   █▙    
    ▜▌   ▐▛    
               
FRAME 20
               
               
  ▄███▟█▙███▄  
 ▟▛ ▜█████▛ ▜▙ 
 █   ▐████   █ 
     █▛▀██▙    
    ▟█   ▜▛    
    ▜▌         
               
FRAME 20
               
               
    ▂▂▟█▙███▄  
  ▄███████▛ ▜▙ 
 ▟▛ ▐████▌   █ 
 █   █▛▀▜█     
    ▟█   █▙    
    ▜▌   ▐▛    
               
FRAME 20
               
               
    ▂▂▟█▙▂▂    
   ▟████████▄  
  ▟▛▜█████▌ ▜▙ 
 ▐▛ ▟██▀▜█   █ 
 █  ▜▛   █▙    
         ▐▛    
               
FRAME 20
               
               
    ▂▂▟█▙▂▂   
  ▄████████▙   
 ▟▛ ▐█████▛▜▙  
 █   █▛▀▜█  ▜▌ 
    ▟█   █▙  █ 
    ▜▌   ▐▛    
               
FRAME 20
               
               
  ▄███▟█▙▂▂    
 ▟▛ ▜███████▄  
 █   ▐████▛ ▜▙ 
     █▛▀██▙  █ 
    ▟█   ▜▛    
    ▜▌         
               
SEQUENCE end
FORWARD
FRAME 0
               
      ▐█▌      
  ▄███▟█▙███▄  
 ▟▛ ▜█████▛ ▜▙ 
 █   ▐███▌   █ 
▟█▙  █▛▀▜█  ▟█▙
▜ ▛ ▟█   █▙ ▜ ▛
    ▜▌   ▐▛    
    ▂█   █▂    
